\relax 
\providecommand\hyper@newdestlabel[2]{}
\providecommand\HyperFirstAtBeginDocument{\AtBeginDocument}
\HyperFirstAtBeginDocument{\ifx\hyper@anchor\@undefined
\global\let\oldcontentsline\contentsline
\gdef\contentsline#1#2#3#4{\oldcontentsline{#1}{#2}{#3}}
\global\let\oldnewlabel\newlabel
\gdef\newlabel#1#2{\newlabelxx{#1}#2}
\gdef\newlabelxx#1#2#3#4#5#6{\oldnewlabel{#1}{{#2}{#3}}}
\AtEndDocument{\ifx\hyper@anchor\@undefined
\let\contentsline\oldcontentsline
\let\newlabel\oldnewlabel
\fi}
\fi}
\global\let\hyper@last\relax 
\gdef\HyperFirstAtBeginDocument#1{#1}
\providecommand\HyField@AuxAddToFields[1]{}
\providecommand\HyField@AuxAddToCoFields[2]{}
\catcode `"\active 
\select@language{brazil}
\@writefile{toc}{\select@language{brazil}}
\@writefile{lof}{\select@language{brazil}}
\@writefile{lot}{\select@language{brazil}}
\@writefile{nav}{\headcommand {\slideentry {0}{0}{1}{1/1}{}{0}}}
\@writefile{nav}{\headcommand {\beamer@framepages {1}{1}}}
\@writefile{nav}{\headcommand {\slideentry {0}{0}{2}{2/2}{}{0}}}
\@writefile{nav}{\headcommand {\beamer@framepages {2}{2}}}
\@writefile{nav}{\headcommand {\slideentry {0}{0}{3}{3/3}{}{0}}}
\@writefile{nav}{\headcommand {\beamer@framepages {3}{3}}}
\@writefile{nav}{\headcommand {\slideentry {0}{0}{4}{4/4}{}{0}}}
\@writefile{nav}{\headcommand {\beamer@framepages {4}{4}}}
\@writefile{nav}{\headcommand {\slideentry {0}{0}{5}{5/5}{}{0}}}
\@writefile{nav}{\headcommand {\beamer@framepages {5}{5}}}
\@writefile{nav}{\headcommand {\slideentry {0}{0}{6}{6/6}{}{0}}}
\@writefile{nav}{\headcommand {\beamer@framepages {6}{6}}}
\@writefile{nav}{\headcommand {\slideentry {0}{0}{7}{7/7}{}{0}}}
\@writefile{nav}{\headcommand {\beamer@framepages {7}{7}}}
\@writefile{nav}{\headcommand {\slideentry {0}{0}{8}{8/8}{}{0}}}
\@writefile{nav}{\headcommand {\beamer@framepages {8}{8}}}
\@writefile{nav}{\headcommand {\slideentry {0}{0}{9}{9/9}{}{0}}}
\@writefile{nav}{\headcommand {\beamer@framepages {9}{9}}}
\@writefile{nav}{\headcommand {\slideentry {0}{0}{10}{10/10}{}{0}}}
\@writefile{nav}{\headcommand {\beamer@framepages {10}{10}}}
\pgfsyspdfmark {pgfid1}{559511}{15835378}
\pgfsyspdfmark {pgfid2}{559511}{15835378}
\pgfsyspdfmark {pgfid3}{559511}{15835378}
\@writefile{nav}{\headcommand {\slideentry {0}{0}{11}{11/13}{}{0}}}
\@writefile{nav}{\headcommand {\beamer@framepages {11}{13}}}
\pgfsyspdfmark {pgfid4}{559511}{15835378}
\@writefile{nav}{\headcommand {\slideentry {0}{0}{12}{14/14}{}{0}}}
\@writefile{nav}{\headcommand {\beamer@framepages {14}{14}}}
\pgfsyspdfmark {pgfid5}{559511}{15835378}
\@writefile{nav}{\headcommand {\slideentry {0}{0}{13}{15/15}{}{0}}}
\@writefile{nav}{\headcommand {\beamer@framepages {15}{15}}}
\pgfsyspdfmark {pgfid6}{559511}{15835378}
\@writefile{nav}{\headcommand {\slideentry {0}{0}{14}{16/16}{}{0}}}
\@writefile{nav}{\headcommand {\beamer@framepages {16}{16}}}
\pgfsyspdfmark {pgfid7}{559511}{15835378}
\@writefile{nav}{\headcommand {\slideentry {0}{0}{15}{17/17}{}{0}}}
\@writefile{nav}{\headcommand {\beamer@framepages {17}{17}}}
\pgfsyspdfmark {pgfid8}{559511}{15835378}
\@writefile{nav}{\headcommand {\slideentry {0}{0}{16}{18/18}{}{0}}}
\@writefile{nav}{\headcommand {\beamer@framepages {18}{18}}}
\pgfsyspdfmark {pgfid9}{559511}{15835378}
\@writefile{nav}{\headcommand {\slideentry {0}{0}{17}{19/19}{}{0}}}
\@writefile{nav}{\headcommand {\beamer@framepages {19}{19}}}
\pgfsyspdfmark {pgfid10}{559511}{15835378}
\@writefile{nav}{\headcommand {\slideentry {0}{0}{18}{20/20}{}{0}}}
\@writefile{nav}{\headcommand {\beamer@framepages {20}{20}}}
\pgfsyspdfmark {pgfid11}{559511}{15835378}
\@writefile{nav}{\headcommand {\slideentry {0}{0}{19}{21/21}{}{0}}}
\@writefile{nav}{\headcommand {\beamer@framepages {21}{21}}}
\pgfsyspdfmark {pgfid12}{559511}{15835378}
\@writefile{nav}{\headcommand {\slideentry {0}{0}{20}{22/22}{}{0}}}
\@writefile{nav}{\headcommand {\beamer@framepages {22}{22}}}
\pgfsyspdfmark {pgfid13}{559511}{15835378}
\@writefile{nav}{\headcommand {\slideentry {0}{0}{21}{23/23}{}{0}}}
\@writefile{nav}{\headcommand {\beamer@framepages {23}{23}}}
\pgfsyspdfmark {pgfid14}{559511}{15835378}
\@writefile{nav}{\headcommand {\slideentry {0}{0}{22}{24/24}{}{0}}}
\@writefile{nav}{\headcommand {\beamer@framepages {24}{24}}}
\pgfsyspdfmark {pgfid15}{559511}{15835378}
\@writefile{nav}{\headcommand {\slideentry {0}{0}{23}{25/25}{}{0}}}
\@writefile{nav}{\headcommand {\beamer@framepages {25}{25}}}
\pgfsyspdfmark {pgfid16}{559511}{15835378}
\@writefile{nav}{\headcommand {\slideentry {0}{0}{24}{26/26}{}{0}}}
\@writefile{nav}{\headcommand {\beamer@framepages {26}{26}}}
\pgfsyspdfmark {pgfid17}{559511}{15835378}
\@writefile{nav}{\headcommand {\slideentry {0}{0}{25}{27/27}{}{0}}}
\@writefile{nav}{\headcommand {\beamer@framepages {27}{27}}}
\pgfsyspdfmark {pgfid18}{559511}{15835378}
\@writefile{nav}{\headcommand {\slideentry {0}{0}{26}{28/28}{}{0}}}
\@writefile{nav}{\headcommand {\beamer@framepages {28}{28}}}
\pgfsyspdfmark {pgfid19}{559511}{15835378}
\@writefile{nav}{\headcommand {\slideentry {0}{0}{27}{29/29}{}{0}}}
\@writefile{nav}{\headcommand {\beamer@framepages {29}{29}}}
\pgfsyspdfmark {pgfid20}{559511}{15835378}
\@writefile{nav}{\headcommand {\slideentry {0}{0}{28}{30/30}{}{0}}}
\@writefile{nav}{\headcommand {\beamer@framepages {30}{30}}}
\pgfsyspdfmark {pgfid21}{559511}{15835378}
\@writefile{nav}{\headcommand {\slideentry {0}{0}{29}{31/31}{}{0}}}
\@writefile{nav}{\headcommand {\beamer@framepages {31}{31}}}
\pgfsyspdfmark {pgfid22}{559511}{15835378}
\@writefile{nav}{\headcommand {\slideentry {0}{0}{30}{32/32}{}{0}}}
\@writefile{nav}{\headcommand {\beamer@framepages {32}{32}}}
\pgfsyspdfmark {pgfid23}{559511}{15835378}
\@writefile{nav}{\headcommand {\slideentry {0}{0}{31}{33/33}{}{0}}}
\@writefile{nav}{\headcommand {\beamer@framepages {33}{33}}}
\pgfsyspdfmark {pgfid24}{559511}{15835378}
\@writefile{nav}{\headcommand {\slideentry {0}{0}{32}{34/34}{}{0}}}
\@writefile{nav}{\headcommand {\beamer@framepages {34}{34}}}
\pgfsyspdfmark {pgfid25}{559511}{15835378}
\@writefile{nav}{\headcommand {\slideentry {0}{0}{33}{35/35}{}{0}}}
\@writefile{nav}{\headcommand {\beamer@framepages {35}{35}}}
\pgfsyspdfmark {pgfid26}{559511}{15835378}
\@writefile{nav}{\headcommand {\slideentry {0}{0}{34}{36/36}{}{0}}}
\@writefile{nav}{\headcommand {\beamer@framepages {36}{36}}}
\pgfsyspdfmark {pgfid27}{559511}{15835378}
\@writefile{nav}{\headcommand {\slideentry {0}{0}{35}{37/37}{}{0}}}
\@writefile{nav}{\headcommand {\beamer@framepages {37}{37}}}
\pgfsyspdfmark {pgfid28}{559511}{15835378}
\@writefile{nav}{\headcommand {\slideentry {0}{0}{36}{38/38}{}{0}}}
\@writefile{nav}{\headcommand {\beamer@framepages {38}{38}}}
\@writefile{nav}{\headcommand {\slideentry {0}{0}{37}{39/39}{}{0}}}
\@writefile{nav}{\headcommand {\beamer@framepages {39}{39}}}
\pgfsyspdfmark {pgfid29}{559511}{15835378}
\@writefile{nav}{\headcommand {\slideentry {0}{0}{38}{40/40}{}{0}}}
\@writefile{nav}{\headcommand {\beamer@framepages {40}{40}}}
\@writefile{nav}{\headcommand {\slideentry {0}{0}{39}{41/41}{}{0}}}
\@writefile{nav}{\headcommand {\beamer@framepages {41}{41}}}
\@writefile{nav}{\headcommand {\slideentry {0}{0}{40}{42/42}{}{0}}}
\@writefile{nav}{\headcommand {\beamer@framepages {42}{42}}}
\pgfsyspdfmark {pgfid30}{559511}{15835378}
\@writefile{nav}{\headcommand {\slideentry {0}{0}{41}{43/43}{}{0}}}
\@writefile{nav}{\headcommand {\beamer@framepages {43}{43}}}
\pgfsyspdfmark {pgfid31}{559511}{15835378}
\@writefile{nav}{\headcommand {\slideentry {0}{0}{42}{44/44}{}{0}}}
\@writefile{nav}{\headcommand {\beamer@framepages {44}{44}}}
\pgfsyspdfmark {pgfid32}{559511}{15835378}
\@writefile{nav}{\headcommand {\slideentry {0}{0}{43}{45/45}{}{0}}}
\@writefile{nav}{\headcommand {\beamer@framepages {45}{45}}}
\pgfsyspdfmark {pgfid33}{559511}{15835378}
\@writefile{nav}{\headcommand {\slideentry {0}{0}{44}{46/46}{}{0}}}
\@writefile{nav}{\headcommand {\beamer@framepages {46}{46}}}
\pgfsyspdfmark {pgfid34}{559511}{15835378}
\@writefile{nav}{\headcommand {\slideentry {0}{0}{45}{47/47}{}{0}}}
\@writefile{nav}{\headcommand {\beamer@framepages {47}{47}}}
\pgfsyspdfmark {pgfid35}{559511}{15835378}
\@writefile{nav}{\headcommand {\slideentry {0}{0}{46}{48/48}{}{0}}}
\@writefile{nav}{\headcommand {\beamer@framepages {48}{48}}}
\pgfsyspdfmark {pgfid36}{559511}{15835378}
\@writefile{nav}{\headcommand {\slideentry {0}{0}{47}{49/49}{}{0}}}
\@writefile{nav}{\headcommand {\beamer@framepages {49}{49}}}
\pgfsyspdfmark {pgfid37}{559511}{15835378}
\@writefile{nav}{\headcommand {\slideentry {0}{0}{48}{50/50}{}{0}}}
\@writefile{nav}{\headcommand {\beamer@framepages {50}{50}}}
\pgfsyspdfmark {pgfid38}{559511}{15835378}
\pgfsyspdfmark {pgfid39}{559511}{15835378}
\pgfsyspdfmark {pgfid40}{559511}{15835378}
\pgfsyspdfmark {pgfid41}{559511}{15835378}
\pgfsyspdfmark {pgfid42}{559511}{15835378}
\pgfsyspdfmark {pgfid43}{559511}{15835378}
\pgfsyspdfmark {pgfid44}{559511}{15835378}
\@writefile{nav}{\headcommand {\slideentry {0}{0}{49}{51/57}{}{0}}}
\@writefile{nav}{\headcommand {\beamer@framepages {51}{57}}}
\@writefile{nav}{\headcommand {\slideentry {0}{0}{50}{58/58}{}{0}}}
\@writefile{nav}{\headcommand {\beamer@framepages {58}{58}}}
\pgfsyspdfmark {pgfid45}{559511}{15835378}
\@writefile{nav}{\headcommand {\slideentry {0}{0}{51}{59/59}{}{0}}}
\@writefile{nav}{\headcommand {\beamer@framepages {59}{59}}}
\pgfsyspdfmark {pgfid46}{559511}{15835378}
\@writefile{nav}{\headcommand {\slideentry {0}{0}{52}{60/60}{}{0}}}
\@writefile{nav}{\headcommand {\beamer@framepages {60}{60}}}
\pgfsyspdfmark {pgfid47}{559511}{15835378}
\@writefile{nav}{\headcommand {\slideentry {0}{0}{53}{61/61}{}{0}}}
\@writefile{nav}{\headcommand {\beamer@framepages {61}{61}}}
\pgfsyspdfmark {pgfid48}{559511}{15835378}
\@writefile{nav}{\headcommand {\slideentry {0}{0}{54}{62/62}{}{0}}}
\@writefile{nav}{\headcommand {\beamer@framepages {62}{62}}}
\pgfsyspdfmark {pgfid49}{559511}{15835378}
\@writefile{nav}{\headcommand {\slideentry {0}{0}{55}{63/63}{}{0}}}
\@writefile{nav}{\headcommand {\beamer@framepages {63}{63}}}
\pgfsyspdfmark {pgfid50}{559511}{15835378}
\@writefile{nav}{\headcommand {\slideentry {0}{0}{56}{64/64}{}{0}}}
\@writefile{nav}{\headcommand {\beamer@framepages {64}{64}}}
\pgfsyspdfmark {pgfid51}{559511}{15835378}
\@writefile{nav}{\headcommand {\slideentry {0}{0}{57}{65/65}{}{0}}}
\@writefile{nav}{\headcommand {\beamer@framepages {65}{65}}}
\pgfsyspdfmark {pgfid52}{559511}{15835378}
\@writefile{nav}{\headcommand {\slideentry {0}{0}{58}{66/66}{}{0}}}
\@writefile{nav}{\headcommand {\beamer@framepages {66}{66}}}
\pgfsyspdfmark {pgfid53}{559511}{15835378}
\@writefile{nav}{\headcommand {\slideentry {0}{0}{59}{67/67}{}{0}}}
\@writefile{nav}{\headcommand {\beamer@framepages {67}{67}}}
\pgfsyspdfmark {pgfid54}{559511}{15835378}
\@writefile{nav}{\headcommand {\slideentry {0}{0}{60}{68/68}{}{0}}}
\@writefile{nav}{\headcommand {\beamer@framepages {68}{68}}}
\pgfsyspdfmark {pgfid55}{559511}{15835378}
\@writefile{nav}{\headcommand {\slideentry {0}{0}{61}{69/69}{}{0}}}
\@writefile{nav}{\headcommand {\beamer@framepages {69}{69}}}
\@writefile{nav}{\headcommand {\slideentry {0}{0}{62}{70/70}{}{0}}}
\@writefile{nav}{\headcommand {\beamer@framepages {70}{70}}}
\@writefile{nav}{\headcommand {\slideentry {0}{0}{63}{71/71}{}{0}}}
\@writefile{nav}{\headcommand {\beamer@framepages {71}{71}}}
\pgfsyspdfmark {pgfid56}{559511}{15835378}
\@writefile{nav}{\headcommand {\slideentry {0}{0}{64}{72/72}{}{0}}}
\@writefile{nav}{\headcommand {\beamer@framepages {72}{72}}}
\pgfsyspdfmark {pgfid57}{559511}{15835378}
\@writefile{nav}{\headcommand {\slideentry {0}{0}{65}{73/73}{}{0}}}
\@writefile{nav}{\headcommand {\beamer@framepages {73}{73}}}
\pgfsyspdfmark {pgfid58}{559511}{15835378}
\@writefile{nav}{\headcommand {\slideentry {0}{0}{66}{74/74}{}{0}}}
\@writefile{nav}{\headcommand {\beamer@framepages {74}{74}}}
\pgfsyspdfmark {pgfid59}{559511}{15835378}
\@writefile{nav}{\headcommand {\slideentry {0}{0}{67}{75/75}{}{0}}}
\@writefile{nav}{\headcommand {\beamer@framepages {75}{75}}}
\pgfsyspdfmark {pgfid60}{559511}{15835378}
\@writefile{nav}{\headcommand {\slideentry {0}{0}{68}{76/76}{}{0}}}
\@writefile{nav}{\headcommand {\beamer@framepages {76}{76}}}
\pgfsyspdfmark {pgfid61}{559511}{15835378}
\@writefile{nav}{\headcommand {\slideentry {0}{0}{69}{77/77}{}{0}}}
\@writefile{nav}{\headcommand {\beamer@framepages {77}{77}}}
\pgfsyspdfmark {pgfid62}{559511}{15835378}
\@writefile{nav}{\headcommand {\slideentry {0}{0}{70}{78/78}{}{0}}}
\@writefile{nav}{\headcommand {\beamer@framepages {78}{78}}}
\@writefile{nav}{\headcommand {\slideentry {0}{0}{71}{79/79}{}{0}}}
\@writefile{nav}{\headcommand {\beamer@framepages {79}{79}}}
\@writefile{nav}{\headcommand {\slideentry {0}{0}{72}{80/80}{}{0}}}
\@writefile{nav}{\headcommand {\beamer@framepages {80}{80}}}
\pgfsyspdfmark {pgfid63}{559511}{15835378}
\@writefile{nav}{\headcommand {\slideentry {0}{0}{73}{81/81}{}{0}}}
\@writefile{nav}{\headcommand {\beamer@framepages {81}{81}}}
\pgfsyspdfmark {pgfid64}{559511}{15835378}
\@writefile{nav}{\headcommand {\slideentry {0}{0}{74}{82/82}{}{0}}}
\@writefile{nav}{\headcommand {\beamer@framepages {82}{82}}}
\pgfsyspdfmark {pgfid65}{559511}{15835378}
\@writefile{nav}{\headcommand {\slideentry {0}{0}{75}{83/83}{}{0}}}
\@writefile{nav}{\headcommand {\beamer@framepages {83}{83}}}
\pgfsyspdfmark {pgfid66}{559511}{15835378}
\@writefile{nav}{\headcommand {\slideentry {0}{0}{76}{84/84}{}{0}}}
\@writefile{nav}{\headcommand {\beamer@framepages {84}{84}}}
\pgfsyspdfmark {pgfid67}{559511}{15835378}
\@writefile{nav}{\headcommand {\slideentry {0}{0}{77}{85/85}{}{0}}}
\@writefile{nav}{\headcommand {\beamer@framepages {85}{85}}}
\pgfsyspdfmark {pgfid68}{559511}{15835378}
\@writefile{nav}{\headcommand {\slideentry {0}{0}{78}{86/86}{}{0}}}
\@writefile{nav}{\headcommand {\beamer@framepages {86}{86}}}
\pgfsyspdfmark {pgfid69}{559511}{15835378}
\@writefile{nav}{\headcommand {\slideentry {0}{0}{79}{87/87}{}{0}}}
\@writefile{nav}{\headcommand {\beamer@framepages {87}{87}}}
\pgfsyspdfmark {pgfid70}{559511}{15835378}
\@writefile{nav}{\headcommand {\slideentry {0}{0}{80}{88/88}{}{0}}}
\@writefile{nav}{\headcommand {\beamer@framepages {88}{88}}}
\pgfsyspdfmark {pgfid71}{559511}{15835378}
\@writefile{nav}{\headcommand {\slideentry {0}{0}{81}{89/89}{}{0}}}
\@writefile{nav}{\headcommand {\beamer@framepages {89}{89}}}
\pgfsyspdfmark {pgfid72}{559511}{15835378}
\@writefile{nav}{\headcommand {\slideentry {0}{0}{82}{90/90}{}{0}}}
\@writefile{nav}{\headcommand {\beamer@framepages {90}{90}}}
\pgfsyspdfmark {pgfid73}{559511}{15835378}
\@writefile{nav}{\headcommand {\slideentry {0}{0}{83}{91/91}{}{0}}}
\@writefile{nav}{\headcommand {\beamer@framepages {91}{91}}}
\pgfsyspdfmark {pgfid74}{559511}{15835378}
\@writefile{nav}{\headcommand {\slideentry {0}{0}{84}{92/92}{}{0}}}
\@writefile{nav}{\headcommand {\beamer@framepages {92}{92}}}
\pgfsyspdfmark {pgfid75}{559511}{15835378}
\@writefile{nav}{\headcommand {\slideentry {0}{0}{85}{93/93}{}{0}}}
\@writefile{nav}{\headcommand {\beamer@framepages {93}{93}}}
\pgfsyspdfmark {pgfid76}{559511}{15835378}
\@writefile{nav}{\headcommand {\slideentry {0}{0}{86}{94/94}{}{0}}}
\@writefile{nav}{\headcommand {\beamer@framepages {94}{94}}}
\@writefile{nav}{\headcommand {\slideentry {0}{0}{87}{95/95}{}{0}}}
\@writefile{nav}{\headcommand {\beamer@framepages {95}{95}}}
\@writefile{nav}{\headcommand {\slideentry {0}{0}{88}{96/96}{}{0}}}
\@writefile{nav}{\headcommand {\beamer@framepages {96}{96}}}
\@writefile{nav}{\headcommand {\slideentry {0}{0}{89}{97/97}{}{0}}}
\@writefile{nav}{\headcommand {\beamer@framepages {97}{97}}}
\@writefile{nav}{\headcommand {\slideentry {0}{0}{90}{98/98}{}{0}}}
\@writefile{nav}{\headcommand {\beamer@framepages {98}{98}}}
\pgfsyspdfmark {pgfid77}{559511}{15835378}
\@writefile{nav}{\headcommand {\slideentry {0}{0}{91}{99/99}{}{0}}}
\@writefile{nav}{\headcommand {\beamer@framepages {99}{99}}}
\pgfsyspdfmark {pgfid78}{559511}{15835378}
\@writefile{nav}{\headcommand {\slideentry {0}{0}{92}{100/100}{}{0}}}
\@writefile{nav}{\headcommand {\beamer@framepages {100}{100}}}
\pgfsyspdfmark {pgfid79}{559511}{15835378}
\@writefile{nav}{\headcommand {\slideentry {0}{0}{93}{101/101}{}{0}}}
\@writefile{nav}{\headcommand {\beamer@framepages {101}{101}}}
\pgfsyspdfmark {pgfid80}{559511}{15835378}
\@writefile{nav}{\headcommand {\slideentry {0}{0}{94}{102/102}{}{0}}}
\@writefile{nav}{\headcommand {\beamer@framepages {102}{102}}}
\@writefile{nav}{\headcommand {\slideentry {0}{0}{95}{103/103}{}{0}}}
\@writefile{nav}{\headcommand {\beamer@framepages {103}{103}}}
\@writefile{nav}{\headcommand {\slideentry {0}{0}{96}{104/104}{}{0}}}
\@writefile{nav}{\headcommand {\beamer@framepages {104}{104}}}
\@writefile{nav}{\headcommand {\slideentry {0}{0}{97}{105/105}{}{0}}}
\@writefile{nav}{\headcommand {\beamer@framepages {105}{105}}}
\pgfsyspdfmark {pgfid81}{559511}{15835378}
\@writefile{nav}{\headcommand {\slideentry {0}{0}{98}{106/106}{}{0}}}
\@writefile{nav}{\headcommand {\beamer@framepages {106}{106}}}
\pgfsyspdfmark {pgfid82}{559511}{15835378}
\@writefile{nav}{\headcommand {\slideentry {0}{0}{99}{107/107}{}{0}}}
\@writefile{nav}{\headcommand {\beamer@framepages {107}{107}}}
\pgfsyspdfmark {pgfid83}{559511}{15835378}
\@writefile{nav}{\headcommand {\slideentry {0}{0}{100}{108/108}{}{0}}}
\@writefile{nav}{\headcommand {\beamer@framepages {108}{108}}}
\pgfsyspdfmark {pgfid84}{559511}{15835378}
\@writefile{nav}{\headcommand {\slideentry {0}{0}{101}{109/109}{}{0}}}
\@writefile{nav}{\headcommand {\beamer@framepages {109}{109}}}
\pgfsyspdfmark {pgfid85}{559511}{15835378}
\@writefile{nav}{\headcommand {\slideentry {0}{0}{102}{110/110}{}{0}}}
\@writefile{nav}{\headcommand {\beamer@framepages {110}{110}}}
\pgfsyspdfmark {pgfid86}{559511}{15835378}
\@writefile{nav}{\headcommand {\slideentry {0}{0}{103}{111/111}{}{0}}}
\@writefile{nav}{\headcommand {\beamer@framepages {111}{111}}}
\pgfsyspdfmark {pgfid87}{559511}{15835378}
\@writefile{nav}{\headcommand {\slideentry {0}{0}{104}{112/112}{}{0}}}
\@writefile{nav}{\headcommand {\beamer@framepages {112}{112}}}
\pgfsyspdfmark {pgfid88}{559511}{15835378}
\@writefile{nav}{\headcommand {\slideentry {0}{0}{105}{113/113}{}{0}}}
\@writefile{nav}{\headcommand {\beamer@framepages {113}{113}}}
\pgfsyspdfmark {pgfid89}{559511}{15835378}
\@writefile{nav}{\headcommand {\slideentry {0}{0}{106}{114/114}{}{0}}}
\@writefile{nav}{\headcommand {\beamer@framepages {114}{114}}}
\pgfsyspdfmark {pgfid90}{559511}{15835378}
\@writefile{nav}{\headcommand {\slideentry {0}{0}{107}{115/115}{}{0}}}
\@writefile{nav}{\headcommand {\beamer@framepages {115}{115}}}
\pgfsyspdfmark {pgfid91}{559511}{15835378}
\@writefile{nav}{\headcommand {\slideentry {0}{0}{108}{116/116}{}{0}}}
\@writefile{nav}{\headcommand {\beamer@framepages {116}{116}}}
\pgfsyspdfmark {pgfid92}{559511}{15835378}
\@writefile{nav}{\headcommand {\slideentry {0}{0}{109}{117/117}{}{0}}}
\@writefile{nav}{\headcommand {\beamer@framepages {117}{117}}}
\pgfsyspdfmark {pgfid93}{559511}{15835378}
\@writefile{nav}{\headcommand {\slideentry {0}{0}{110}{118/118}{}{0}}}
\@writefile{nav}{\headcommand {\beamer@framepages {118}{118}}}
\pgfsyspdfmark {pgfid94}{559511}{15835378}
\@writefile{nav}{\headcommand {\slideentry {0}{0}{111}{119/119}{}{0}}}
\@writefile{nav}{\headcommand {\beamer@framepages {119}{119}}}
\pgfsyspdfmark {pgfid95}{559511}{15835378}
\@writefile{nav}{\headcommand {\slideentry {0}{0}{112}{120/120}{}{0}}}
\@writefile{nav}{\headcommand {\beamer@framepages {120}{120}}}
\pgfsyspdfmark {pgfid96}{559511}{15835378}
\@writefile{nav}{\headcommand {\slideentry {0}{0}{113}{121/121}{}{0}}}
\@writefile{nav}{\headcommand {\beamer@framepages {121}{121}}}
\pgfsyspdfmark {pgfid97}{559511}{15835378}
\@writefile{nav}{\headcommand {\slideentry {0}{0}{114}{122/122}{}{0}}}
\@writefile{nav}{\headcommand {\beamer@framepages {122}{122}}}
\pgfsyspdfmark {pgfid98}{559511}{15835378}
\@writefile{nav}{\headcommand {\slideentry {0}{0}{115}{123/123}{}{0}}}
\@writefile{nav}{\headcommand {\beamer@framepages {123}{123}}}
\pgfsyspdfmark {pgfid99}{559511}{15835378}
\@writefile{nav}{\headcommand {\slideentry {0}{0}{116}{124/124}{}{0}}}
\@writefile{nav}{\headcommand {\beamer@framepages {124}{124}}}
\pgfsyspdfmark {pgfid100}{559511}{15835378}
\@writefile{nav}{\headcommand {\slideentry {0}{0}{117}{125/125}{}{0}}}
\@writefile{nav}{\headcommand {\beamer@framepages {125}{125}}}
\pgfsyspdfmark {pgfid101}{559511}{15835378}
\@writefile{nav}{\headcommand {\slideentry {0}{0}{118}{126/126}{}{0}}}
\@writefile{nav}{\headcommand {\beamer@framepages {126}{126}}}
\pgfsyspdfmark {pgfid102}{559511}{15835378}
\@writefile{nav}{\headcommand {\slideentry {0}{0}{119}{127/127}{}{0}}}
\@writefile{nav}{\headcommand {\beamer@framepages {127}{127}}}
\@writefile{nav}{\headcommand {\slideentry {0}{0}{120}{128/128}{}{0}}}
\@writefile{nav}{\headcommand {\beamer@framepages {128}{128}}}
\@writefile{nav}{\headcommand {\slideentry {0}{0}{121}{129/129}{}{0}}}
\@writefile{nav}{\headcommand {\beamer@framepages {129}{129}}}
\@writefile{nav}{\headcommand {\slideentry {0}{0}{122}{130/130}{}{0}}}
\@writefile{nav}{\headcommand {\beamer@framepages {130}{130}}}
\pgfsyspdfmark {pgfid103}{559511}{15835378}
\@writefile{nav}{\headcommand {\slideentry {0}{0}{123}{131/131}{}{0}}}
\@writefile{nav}{\headcommand {\beamer@framepages {131}{131}}}
\pgfsyspdfmark {pgfid104}{559511}{15835378}
\@writefile{nav}{\headcommand {\slideentry {0}{0}{124}{132/132}{}{0}}}
\@writefile{nav}{\headcommand {\beamer@framepages {132}{132}}}
\pgfsyspdfmark {pgfid105}{559511}{15835378}
\@writefile{nav}{\headcommand {\slideentry {0}{0}{125}{133/133}{}{0}}}
\@writefile{nav}{\headcommand {\beamer@framepages {133}{133}}}
\pgfsyspdfmark {pgfid106}{559511}{15835378}
\@writefile{nav}{\headcommand {\slideentry {0}{0}{126}{134/134}{}{0}}}
\@writefile{nav}{\headcommand {\beamer@framepages {134}{134}}}
\pgfsyspdfmark {pgfid107}{559511}{15835378}
\@writefile{nav}{\headcommand {\slideentry {0}{0}{127}{135/135}{}{0}}}
\@writefile{nav}{\headcommand {\beamer@framepages {135}{135}}}
\pgfsyspdfmark {pgfid108}{559511}{15835378}
\@writefile{nav}{\headcommand {\slideentry {0}{0}{128}{136/136}{}{0}}}
\@writefile{nav}{\headcommand {\beamer@framepages {136}{136}}}
\pgfsyspdfmark {pgfid109}{559511}{15835378}
\@writefile{nav}{\headcommand {\slideentry {0}{0}{129}{137/137}{}{0}}}
\@writefile{nav}{\headcommand {\beamer@framepages {137}{137}}}
\pgfsyspdfmark {pgfid110}{559511}{15835378}
\@writefile{nav}{\headcommand {\slideentry {0}{0}{130}{138/138}{}{0}}}
\@writefile{nav}{\headcommand {\beamer@framepages {138}{138}}}
\pgfsyspdfmark {pgfid111}{559511}{15835378}
\@writefile{nav}{\headcommand {\slideentry {0}{0}{131}{139/139}{}{0}}}
\@writefile{nav}{\headcommand {\beamer@framepages {139}{139}}}
\pgfsyspdfmark {pgfid112}{559511}{15835378}
\@writefile{nav}{\headcommand {\slideentry {0}{0}{132}{140/140}{}{0}}}
\@writefile{nav}{\headcommand {\beamer@framepages {140}{140}}}
\@writefile{nav}{\headcommand {\slideentry {0}{0}{133}{141/141}{}{0}}}
\@writefile{nav}{\headcommand {\beamer@framepages {141}{141}}}
\@writefile{nav}{\headcommand {\slideentry {0}{0}{134}{142/142}{}{0}}}
\@writefile{nav}{\headcommand {\beamer@framepages {142}{142}}}
\@writefile{nav}{\headcommand {\slideentry {0}{0}{135}{143/143}{}{0}}}
\@writefile{nav}{\headcommand {\beamer@framepages {143}{143}}}
\pgfsyspdfmark {pgfid113}{559511}{15835378}
\@writefile{nav}{\headcommand {\slideentry {0}{0}{136}{144/144}{}{0}}}
\@writefile{nav}{\headcommand {\beamer@framepages {144}{144}}}
\pgfsyspdfmark {pgfid114}{559511}{15835378}
\@writefile{nav}{\headcommand {\slideentry {0}{0}{137}{145/145}{}{0}}}
\@writefile{nav}{\headcommand {\beamer@framepages {145}{145}}}
\pgfsyspdfmark {pgfid115}{559511}{15835378}
\@writefile{nav}{\headcommand {\slideentry {0}{0}{138}{146/146}{}{0}}}
\@writefile{nav}{\headcommand {\beamer@framepages {146}{146}}}
\pgfsyspdfmark {pgfid116}{559511}{15835378}
\@writefile{nav}{\headcommand {\slideentry {0}{0}{139}{147/147}{}{0}}}
\@writefile{nav}{\headcommand {\beamer@framepages {147}{147}}}
\pgfsyspdfmark {pgfid117}{559511}{15835378}
\@writefile{nav}{\headcommand {\slideentry {0}{0}{140}{148/148}{}{0}}}
\@writefile{nav}{\headcommand {\beamer@framepages {148}{148}}}
\pgfsyspdfmark {pgfid118}{559511}{15835378}
\@writefile{nav}{\headcommand {\slideentry {0}{0}{141}{149/149}{}{0}}}
\@writefile{nav}{\headcommand {\beamer@framepages {149}{149}}}
\pgfsyspdfmark {pgfid119}{559511}{15835378}
\@writefile{nav}{\headcommand {\slideentry {0}{0}{142}{150/150}{}{0}}}
\@writefile{nav}{\headcommand {\beamer@framepages {150}{150}}}
\pgfsyspdfmark {pgfid120}{559511}{15835378}
\@writefile{nav}{\headcommand {\slideentry {0}{0}{143}{151/151}{}{0}}}
\@writefile{nav}{\headcommand {\beamer@framepages {151}{151}}}
\pgfsyspdfmark {pgfid121}{559511}{15835378}
\@writefile{nav}{\headcommand {\slideentry {0}{0}{144}{152/152}{}{0}}}
\@writefile{nav}{\headcommand {\beamer@framepages {152}{152}}}
\pgfsyspdfmark {pgfid122}{559511}{15835378}
\@writefile{nav}{\headcommand {\slideentry {0}{0}{145}{153/153}{}{0}}}
\@writefile{nav}{\headcommand {\beamer@framepages {153}{153}}}
\pgfsyspdfmark {pgfid123}{559511}{15835378}
\@writefile{nav}{\headcommand {\slideentry {0}{0}{146}{154/154}{}{0}}}
\@writefile{nav}{\headcommand {\beamer@framepages {154}{154}}}
\pgfsyspdfmark {pgfid124}{559511}{15835378}
\@writefile{nav}{\headcommand {\slideentry {0}{0}{147}{155/155}{}{0}}}
\@writefile{nav}{\headcommand {\beamer@framepages {155}{155}}}
\pgfsyspdfmark {pgfid125}{559511}{15835378}
\@writefile{nav}{\headcommand {\slideentry {0}{0}{148}{156/156}{}{0}}}
\@writefile{nav}{\headcommand {\beamer@framepages {156}{156}}}
\pgfsyspdfmark {pgfid126}{559511}{15835378}
\@writefile{nav}{\headcommand {\slideentry {0}{0}{149}{157/157}{}{0}}}
\@writefile{nav}{\headcommand {\beamer@framepages {157}{157}}}
\pgfsyspdfmark {pgfid127}{559511}{15835378}
\@writefile{nav}{\headcommand {\slideentry {0}{0}{150}{158/158}{}{0}}}
\@writefile{nav}{\headcommand {\beamer@framepages {158}{158}}}
\pgfsyspdfmark {pgfid128}{559511}{15835378}
\@writefile{nav}{\headcommand {\slideentry {0}{0}{151}{159/159}{}{0}}}
\@writefile{nav}{\headcommand {\beamer@framepages {159}{159}}}
\pgfsyspdfmark {pgfid129}{559511}{15835378}
\@writefile{nav}{\headcommand {\slideentry {0}{0}{152}{160/160}{}{0}}}
\@writefile{nav}{\headcommand {\beamer@framepages {160}{160}}}
\@writefile{nav}{\headcommand {\slideentry {0}{0}{153}{161/161}{}{0}}}
\@writefile{nav}{\headcommand {\beamer@framepages {161}{161}}}
\@writefile{nav}{\headcommand {\beamer@partpages {1}{161}}}
\@writefile{nav}{\headcommand {\beamer@subsectionpages {1}{161}}}
\@writefile{nav}{\headcommand {\beamer@sectionpages {1}{161}}}
\@writefile{nav}{\headcommand {\beamer@documentpages {161}}}
\@writefile{nav}{\headcommand {\def \inserttotalframenumber {153}}}
